digraph G {
graph [ ]
node [ ]
edge [ ]
0[ color="black" label="idle" ];
1[ color="black" label="empty hand motion" ];
2[ color="black" label="reaching" ];
3[ color="black" label="grasping" ];
4[ color="black" label="holding" ];
5[ color="black" label="retreating" ];
6[ color="black" label="lifting" ];
7[ color="black" label="carrying" ];
8[ color="black" label="platform moves" ];
9[ color="black" label="waiting" ];
10[ color="black" label="placing failed" ];
0->1 [ color="black" label="1" ];
1->2 [ color="black" label="2, 7" ];
2->1 [ color="black" label="3, 6, 8" ];
1->0 [ color="black" label="4, 9, 12, 19" ];
0->2 [ color="black" label="5" ];
0->3 [ color="black" label="10" ];
3->1 [ color="black" label="11" ];
0->4 [ color="black" label="13, 20, 22" ];
4->0 [ color="black" label="14, 21, 23" ];
0->5 [ color="black" label="15" ];
5->6 [ color="black" label="16" ];
6->7 [ color="black" label="17" ];
7->1 [ color="black" label="18" ];
0->8 [ color="black" label="24" ];
8->7 [ color="black" label="25, 27, 29" ];
7->8 [ color="black" label="26, 28, 30" ];
8->0 [ color="black" label="31" ];
0->9 [ color="black" label="32" ];
9->4 [ color="black" label="33" ];
4->9 [ color="black" label="34" ];
9->10 [ color="black" label="35" ];
}
