digraph G {
graph [ ]
node [ ]
edge [ ]
0[ color="black" label="idle" ];
1[ color="black" label="empty hand motion" ];
2[ color="black" label="preshaping" ];
3[ color="black" label="reaching" ];
4[ color="black" label="grasping" ];
5[ color="black" label="holding" ];
6[ color="black" label="carrying" ];
7[ color="black" label="lifting" ];
8[ color="black" label="platform moves" ];
9[ color="black" label="placing" ];
10[ color="black" label="placing failed" ];
0->1 [ color="black" label="1, 5" ];
1->0 [ color="black" label="2, 14" ];
0->2 [ color="black" label="3" ];
2->0 [ color="black" label="4" ];
1->3 [ color="black" label="6" ];
3->4 [ color="black" label="7" ];
4->5 [ color="black" label="8" ];
5->6 [ color="black" label="9" ];
6->7 [ color="black" label="10" ];
7->6 [ color="black" label="11" ];
6->2 [ color="black" label="12" ];
2->1 [ color="black" label="13" ];
0->8 [ color="black" label="15" ];
8->6 [ color="black" label="16" ];
6->8 [ color="black" label="17" ];
8->0 [ color="black" label="18" ];
0->9 [ color="black" label="19" ];
9->5 [ color="black" label="20, 22" ];
5->9 [ color="black" label="21, 23" ];
9->10 [ color="black" label="24" ];
}
