digraph G {
graph [ ]
node [ ]
edge [ ]
0[ color="black" label="idle" ];
1[ color="black" label="empty hand motion" ];
2[ color="black" label="preshaping" ];
3[ color="black" label="reaching" ];
4[ color="black" label="grasping" ];
5[ color="black" label="holding" ];
6[ color="black" label="lifting" ];
7[ color="black" label="carrying" ];
8[ color="black" label="platform moves" ];
9[ color="black" label="placing" ];
10[ color="black" label="placing successful" ];
0->1 [ color="black" label="1, 5" ];
1->0 [ color="black" label="2" ];
0->2 [ color="black" label="3" ];
2->0 [ color="black" label="4" ];
1->3 [ color="black" label="6" ];
3->4 [ color="black" label="7, 9" ];
4->3 [ color="black" label="8" ];
4->5 [ color="black" label="10" ];
5->6 [ color="black" label="11" ];
6->7 [ color="black" label="12" ];
7->5 [ color="black" label="13, 17" ];
5->7 [ color="black" label="14" ];
7->8 [ color="black" label="15" ];
8->7 [ color="black" label="16" ];
5->9 [ color="black" label="18, 20, 22, 24" ];
9->5 [ color="black" label="19, 21, 23" ];
9->10 [ color="black" label="25" ];
}
