digraph G {
graph [ ]
node [ ]
edge [ ]
0[ color="black" label="idle" ];
1[ color="black" label="empty hand motion" ];
2[ color="black" label="preshaping" ];
3[ color="black" label="grasping" ];
4[ color="black" label="reaching" ];
5[ color="black" label="carrying" ];
6[ color="black" label="holding" ];
7[ color="black" label="placing" ];
8[ color="black" label="placing successful" ];
0->1 [ color="black" label="1, 5, 12" ];
1->0 [ color="black" label="2, 6, 11, 13" ];
0->2 [ color="black" label="3, 7, 9" ];
2->0 [ color="black" label="4, 8" ];
2->1 [ color="black" label="10" ];
0->3 [ color="black" label="14" ];
3->4 [ color="black" label="15, 17" ];
4->3 [ color="black" label="16" ];
4->5 [ color="black" label="18" ];
5->6 [ color="black" label="19, 21, 23" ];
6->5 [ color="black" label="20, 22" ];
6->7 [ color="black" label="24" ];
7->6 [ color="black" label="25" ];
6->8 [ color="black" label="26" ];
}
