digraph G {
graph [ ]
node [ ]
edge [ ]
0[ color="black" label="idle" ];
1[ color="black" label="empty hand motion" ];
2[ color="black" label="grasping" ];
3[ color="black" label="reaching" ];
4[ color="black" label="holding" ];
5[ color="black" label="carrying" ];
6[ color="black" label="lifting" ];
7[ color="black" label="platform moves" ];
0->1 [ color="black" label="1, 3" ];
1->0 [ color="black" label="2, 4" ];
0->2 [ color="black" label="5" ];
2->3 [ color="black" label="6, 10" ];
3->2 [ color="black" label="7" ];
2->4 [ color="black" label="8" ];
4->2 [ color="black" label="9" ];
3->5 [ color="black" label="11" ];
5->6 [ color="black" label="12" ];
6->5 [ color="black" label="13" ];
5->4 [ color="black" label="14" ];
4->5 [ color="black" label="15" ];
5->7 [ color="black" label="16" ];
}
