digraph G {
graph [ ]
node [ ]
edge [ ]
0[ color="black" label="idle" ];
1[ color="black" label="empty hand motion" ];
2[ color="black" label="preshaping" ];
3[ color="black" label="reaching" ];
4[ color="black" label="grasping" ];
5[ color="black" label="carrying" ];
6[ color="black" label="lifting" ];
7[ color="black" label="holding" ];
8[ color="black" label="placing" ];
9[ color="black" label="placing successful" ];
0->1 [ color="black" label="1, 5" ];
1->0 [ color="black" label="2" ];
0->2 [ color="black" label="3" ];
2->0 [ color="black" label="4" ];
1->3 [ color="black" label="6" ];
3->4 [ color="black" label="7" ];
4->5 [ color="black" label="8" ];
5->6 [ color="black" label="9" ];
6->5 [ color="black" label="10" ];
5->7 [ color="black" label="11, 13, 15" ];
7->5 [ color="black" label="12, 14" ];
7->8 [ color="black" label="16, 18, 20" ];
8->7 [ color="black" label="17, 19" ];
8->9 [ color="black" label="21" ];
}
