digraph G {
graph [ ]
node [ ]
edge [ ]
0[ color="black" label="idle" ];
1[ color="black" label="empty hand motion" ];
2[ color="black" label="preshaping" ];
3[ color="black" label="grasping" ];
4[ color="black" label="reaching" ];
5[ color="black" label="retreating" ];
6[ color="black" label="platform moves" ];
7[ color="black" label="placing" ];
8[ color="black" label="holding" ];
9[ color="black" label="placing failed" ];
0->1 [ color="black" label="1, 3" ];
1->0 [ color="black" label="2, 4, 15" ];
0->2 [ color="black" label="5" ];
2->0 [ color="black" label="6" ];
0->3 [ color="black" label="7" ];
3->4 [ color="black" label="8, 10, 12" ];
4->3 [ color="black" label="9, 11" ];
4->5 [ color="black" label="13" ];
5->1 [ color="black" label="14" ];
0->6 [ color="black" label="16, 18, 20, 22, 24, 26" ];
6->0 [ color="black" label="17, 19, 21, 23, 25, 27" ];
0->7 [ color="black" label="28" ];
7->8 [ color="black" label="29, 31" ];
8->7 [ color="black" label="30, 32" ];
7->9 [ color="black" label="33" ];
}
