digraph G {
graph [ ]
node [ ]
edge [ ]
0[ color="black" label="idle" ];
1[ color="black" label="empty hand motion" ];
2[ color="black" label="preshaping" ];
3[ color="black" label="reaching" ];
4[ color="black" label="grasping" ];
5[ color="black" label="holding" ];
6[ color="black" label="carrying" ];
0->1 [ color="black" label="1, 3, 7, 15" ];
1->0 [ color="black" label="2, 4" ];
0->2 [ color="black" label="5, 13" ];
2->0 [ color="black" label="6, 14" ];
1->3 [ color="black" label="8, 16" ];
3->4 [ color="black" label="9, 11, 17" ];
4->3 [ color="black" label="10" ];
4->0 [ color="black" label="12" ];
4->5 [ color="black" label="18" ];
5->6 [ color="black" label="19" ];
6->1 [ color="black" label="20" ];
}
