digraph G {
graph [ ]
node [ ]
edge [ ]
0[ color="black" label="idle" ];
1[ color="black" label="empty hand motion" ];
2[ color="black" label="preshaping" ];
3[ color="black" label="grasping" ];
4[ color="black" label="reaching" ];
5[ color="black" label="carrying" ];
6[ color="black" label="lifting" ];
7[ color="black" label="holding" ];
8[ color="black" label="placing" ];
9[ color="black" label="placing successful" ];
0->1 [ color="black" label="1" ];
1->0 [ color="black" label="2" ];
0->2 [ color="black" label="3" ];
2->0 [ color="black" label="4" ];
0->3 [ color="black" label="5" ];
3->4 [ color="black" label="6" ];
4->3 [ color="black" label="7" ];
3->5 [ color="black" label="8" ];
5->6 [ color="black" label="9, 11" ];
6->5 [ color="black" label="10, 12" ];
5->7 [ color="black" label="13, 15" ];
7->5 [ color="black" label="14" ];
7->8 [ color="black" label="16, 18, 20, 22, 24, 26, 28" ];
8->7 [ color="black" label="17, 19, 21, 23, 25, 27" ];
8->9 [ color="black" label="29" ];
}
