digraph G {
graph [ ]
node [ ]
edge [ ]
0[ color="black" label="idle" ];
1[ color="black" label="empty hand motion" ];
2[ color="black" label="reaching" ];
3[ color="black" label="grasping" ];
4[ color="black" label="holding" ];
5[ color="black" label="lifting" ];
6[ color="black" label="carrying" ];
7[ color="black" label="waiting" ];
8[ color="black" label="placing successful" ];
0->1 [ color="black" label="1, 14" ];
1->2 [ color="black" label="2" ];
2->1 [ color="black" label="3, 6" ];
1->0 [ color="black" label="4, 7, 15" ];
0->2 [ color="black" label="5" ];
0->3 [ color="black" label="8" ];
3->0 [ color="black" label="9" ];
0->4 [ color="black" label="10, 12" ];
4->0 [ color="black" label="11, 13" ];
0->5 [ color="black" label="16" ];
5->6 [ color="black" label="17" ];
6->4 [ color="black" label="18, 20" ];
4->6 [ color="black" label="19" ];
4->7 [ color="black" label="21, 23, 25, 27, 29, 31, 33, 35, 37, 39, 41, 43, 45, 47, 49, 51" ];
7->4 [ color="black" label="22, 24, 26, 28, 30, 32, 34, 36, 38, 40, 42, 44, 46, 48, 50" ];
7->8 [ color="black" label="52" ];
}
