digraph G {
graph [ ]
node [ ]
edge [ ]
0[ color="black" label="idle" ];
1[ color="black" label="empty hand motion" ];
2[ color="black" label="preshaping" ];
3[ color="black" label="grasping" ];
4[ color="black" label="reaching" ];
5[ color="black" label="retreating" ];
0->1 [ color="black" label="1, 9" ];
1->0 [ color="black" label="2" ];
0->2 [ color="black" label="3" ];
2->0 [ color="black" label="4" ];
0->3 [ color="black" label="5" ];
3->4 [ color="black" label="6, 12, 14, 16" ];
4->3 [ color="black" label="7, 11, 13, 15" ];
3->0 [ color="black" label="8" ];
1->4 [ color="black" label="10" ];
4->5 [ color="black" label="17" ];
5->1 [ color="black" label="18" ];
}
