digraph G {
graph [ ]
node [ ]
edge [ ]
0[ color="black" label="idle" ];
1[ color="black" label="empty hand motion" ];
2[ color="black" label="preshaping" ];
3[ color="black" label="reaching" ];
4[ color="black" label="retreating" ];
0->1 [ color="black" label="1, 3, 7" ];
1->0 [ color="black" label="2, 4, 10" ];
0->2 [ color="black" label="5" ];
2->0 [ color="black" label="6" ];
1->3 [ color="black" label="8" ];
3->1 [ color="black" label="9, 12" ];
0->3 [ color="black" label="11" ];
1->4 [ color="black" label="13" ];
4->0 [ color="black" label="14" ];
}
