digraph G {
graph [ ]
node [ ]
edge [ ]
0[ color="black" label="idle" ];
1[ color="black" label="empty hand motion" ];
2[ color="black" label="reaching" ];
3[ color="black" label="grasping" ];
4[ color="black" label="retreating" ];
5[ color="black" label="lifting" ];
0->1 [ color="black" label="1, 3, 5" ];
1->0 [ color="black" label="2, 4" ];
1->2 [ color="black" label="6" ];
2->3 [ color="black" label="7, 9" ];
3->2 [ color="black" label="8, 10" ];
2->4 [ color="black" label="11" ];
4->5 [ color="black" label="12" ];
}
