digraph G {
graph [ ]
node [ ]
edge [ ]
0[ color="black" label="idle" ];
1[ color="black" label="empty hand motion" ];
2[ color="black" label="preshaping" ];
3[ color="black" label="grasping" ];
4[ color="black" label="carrying" ];
5[ color="black" label="lifting" ];
0->1 [ color="black" label="1, 3, 7, 9, 15" ];
1->0 [ color="black" label="2, 4, 8, 10" ];
0->2 [ color="black" label="5" ];
2->0 [ color="black" label="6" ];
0->3 [ color="black" label="11, 13" ];
3->0 [ color="black" label="12, 14" ];
1->4 [ color="black" label="16" ];
4->5 [ color="black" label="17" ];
5->4 [ color="black" label="18" ];
4->2 [ color="black" label="19" ];
}
